<?xml version="1.0" encoding="UTF-8" standalone="no"?>
<svg
   xmlns:dc="http://purl.org/dc/elements/1.1/"
   xmlns:cc="http://creativecommons.org/ns#"
   xmlns:rdf="http://www.w3.org/1999/02/22-rdf-syntax-ns#"
   xmlns:svg="http://www.w3.org/2000/svg"
   xmlns="http://www.w3.org/2000/svg"
   xmlns:sodipodi="http://sodipodi.sourceforge.net/DTD/sodipodi-0.dtd"
   xmlns:inkscape="http://www.inkscape.org/namespaces/inkscape"
   data-name="Layer 1"
   viewBox="0 0 64 80"
   x="0px"
   y="0px"
   version="1.1"
   id="svg26"
   sodipodi:docname="wiki.svg"
   inkscape:version="0.92.5 (2060ec1f9f, 2020-04-08)">
  <metadata
     id="metadata32">
    <rdf:RDF>
      <cc:Work
         rdf:about="">
        <dc:format>image/svg+xml</dc:format>
        <dc:type
           rdf:resource="http://purl.org/dc/dcmitype/StillImage" />
      </cc:Work>
    </rdf:RDF>
  </metadata>
  <defs
     id="defs30" />
  <sodipodi:namedview
     pagecolor="#ffffff"
     bordercolor="#666666"
     borderopacity="1"
     objecttolerance="10"
     gridtolerance="10"
     guidetolerance="10"
     inkscape:pageopacity="0"
     inkscape:pageshadow="2"
     inkscape:window-width="640"
     inkscape:window-height="480"
     id="namedview28"
     showgrid="false"
     inkscape:zoom="2.95"
     inkscape:cx="32"
     inkscape:cy="40"
     inkscape:window-x="0"
     inkscape:window-y="22"
     inkscape:window-maximized="0"
     inkscape:current-layer="svg26" />
  <title
     id="title2">wiki-guru-sage-pundit-expert-book</title>
  <path
     d="M35.882,10.54a.929.929,0,0,0-.178.059l-1.106.485.8,1.832,1.02-.448a52.941,52.941,0,0,1,21.4-.484l.358-1.968A54.955,54.955,0,0,0,35.882,10.54Z"
     id="path4" />
  <path
     d="M35.882,16.54a.929.929,0,0,0-.178.059l-1.106.485.8,1.832,1.02-.448a52.941,52.941,0,0,1,21.4-.484l.358-1.968A54.92,54.92,0,0,0,35.882,16.54Z"
     id="path6" />
  <path
     d="M35.882,22.54a.929.929,0,0,0-.178.059l-1.106.485.8,1.832,1.02-.448a52.923,52.923,0,0,1,21.4-.484l.358-1.968A54.92,54.92,0,0,0,35.882,22.54Z"
     id="path8" />
  <path
     d="M35.882,28.54a.929.929,0,0,0-.178.059l-1.106.485.8,1.832,1.02-.448a52.906,52.906,0,0,1,21.4-.484l.358-1.968A54.937,54.937,0,0,0,35.882,28.54Z"
     id="path10" />
  <path
     d="M28.118,10.54a54.955,54.955,0,0,0-22.3-.524l.358,1.968a52.94,52.94,0,0,1,21.4.484l1.02.448.8-1.832L28.3,10.6A.929.929,0,0,0,28.118,10.54Z"
     id="path12" />
  <path
     d="M28.118,16.54a54.92,54.92,0,0,0-22.3-.524l.358,1.968a52.94,52.94,0,0,1,21.4.484l1.02.448.8-1.832L28.3,16.6A.929.929,0,0,0,28.118,16.54Z"
     id="path14" />
  <path
     d="M28.118,22.54a54.92,54.92,0,0,0-22.3-.524l.358,1.968a52.94,52.94,0,0,1,21.4.484l1.02.448.8-1.832L28.3,22.6A.929.929,0,0,0,28.118,22.54Z"
     id="path16" />
  <path
     d="M28.118,28.54a54.938,54.938,0,0,0-22.3-.524l.358,1.968a52.9,52.9,0,0,1,21.4.484l1.02.448.8-1.832L28.3,28.6A.929.929,0,0,0,28.118,28.54Z"
     id="path18" />
  <path
     d="M61.146,3.011l-.322-.048a58.5,58.5,0,0,0-26.4,2.2l-2.365.764L29.679,4.866a.956.956,0,0,0-.1-.039,58.468,58.468,0,0,0-26.4-2.2l-.323.047A1,1,0,0,0,2,3.661v35a1,1,0,0,0,.381.785.99.99,0,0,0,.851.188l6.373-1.522a25.555,25.555,0,0,1,11.913.027L23,38.5V44H14.813A10.826,10.826,0,0,0,4,54.813V61a1,1,0,0,0,1,1H59a1,1,0,0,0,1-1V54.813A10.826,10.826,0,0,0,49.187,44H41V38.839l1.482-.361A25.529,25.529,0,0,1,54.4,38.451l6.373,1.522A1,1,0,0,0,62,39V4A1,1,0,0,0,61.146,3.011ZM31.991,41,32,41a1,1,0,0,0,.236-.028L39,39.326V44a6.964,6.964,0,0,1-.06.872l0,0a6.921,6.921,0,0,1-1.061,2.912c-.012.02-.023.041-.036.061-.082.124-.172.242-.262.361-.041.055-.081.112-.124.165-.083.1-.171.2-.26.3-.056.063-.111.127-.169.187-.088.09-.179.176-.271.261-.066.062-.132.123-.2.182-.093.08-.189.156-.287.231-.072.057-.146.112-.221.166-.1.071-.2.139-.3.2-.079.05-.159.1-.24.146-.1.061-.21.119-.318.175-.086.044-.174.085-.261.126-.108.05-.216.1-.327.143-.095.038-.192.072-.289.106s-.215.076-.325.108-.219.059-.33.086-.2.052-.309.072c-.133.026-.269.044-.405.062-.085.012-.17.028-.256.036-.225.022-.452.035-.683.035s-.458-.013-.683-.035c-.086-.008-.17-.024-.256-.035-.136-.019-.272-.037-.405-.063-.1-.02-.206-.047-.309-.072s-.222-.053-.33-.086-.217-.07-.325-.108-.194-.068-.289-.106c-.111-.045-.219-.093-.327-.143-.087-.041-.175-.082-.261-.126-.108-.056-.214-.114-.318-.175-.081-.047-.161-.1-.24-.146-.1-.066-.205-.133-.3-.2-.075-.053-.149-.109-.222-.166-.1-.075-.193-.151-.286-.231-.068-.059-.134-.12-.2-.182-.092-.085-.183-.171-.271-.261-.058-.06-.113-.124-.169-.187-.089-.1-.177-.2-.26-.3-.044-.055-.083-.112-.125-.168-.089-.117-.179-.235-.26-.358-.014-.022-.026-.044-.04-.066a6.937,6.937,0,0,1-1.058-2.908l0,0A6.964,6.964,0,0,1,25,44V39.04l6.726,1.921A.948.948,0,0,0,31.991,41Zm-10-4.8a27.519,27.519,0,0,0-12.849-.029L4,37.4V4.527A56.441,56.441,0,0,1,28.911,6.714L31,7.648V38.389Zm27.2,9.8A8.824,8.824,0,0,1,58,54.813V60H6V54.813A8.824,8.824,0,0,1,14.813,46H23.23c.007.029.017.057.024.086a8.986,8.986,0,0,0,.666,1.853c.04.081.076.163.117.243.072.136.151.266.229.4.062.1.122.207.188.308.077.12.16.236.243.351s.153.21.233.311.172.215.262.319.178.2.269.3.185.2.282.291.2.185.3.275.2.178.3.262.239.18.36.269q.265.2.547.37c.128.08.256.163.389.237.115.064.236.12.354.179s.249.126.377.182.244.1.368.15.268.1.4.148.245.079.37.115c.147.043.3.08.447.115.118.028.235.056.354.078.175.034.353.059.532.082.1.012.2.029.3.039.282.027.567.043.855.043s.573-.016.855-.043c.1-.01.2-.027.3-.039.179-.023.357-.048.532-.082.119-.022.236-.05.354-.078.15-.035.3-.072.447-.115.125-.036.248-.074.37-.115s.27-.1.4-.148.248-.1.37-.15.251-.119.375-.181.239-.116.355-.18c.133-.074.261-.157.389-.237q.282-.175.547-.37c.121-.089.244-.175.36-.269s.2-.174.3-.262.2-.18.3-.275.189-.192.282-.291.182-.2.269-.3.177-.21.262-.319.157-.2.233-.311.166-.231.243-.351c.066-.1.126-.2.188-.308.078-.132.157-.262.229-.4.041-.079.077-.161.116-.241a8.928,8.928,0,0,0,.667-1.855c.007-.029.017-.057.024-.086ZM60,37.733l-5.141-1.227a27.53,27.53,0,0,0-12.849.029l-2.245.546h0L33,38.727v-31l2.037-.659A56.488,56.488,0,0,1,60,4.866Z"
     id="path20" />
</svg>
